{
    "_links": {
        "self": {
            "href": "http:\/\/default\/taxonomy\/term\/88?_format=hal_json"
        },
        "type": {
            "href": "http:\/\/drupal.org\/rest\/type\/taxonomy_term\/specialties"
        },
        "http:\/\/drupal.org\/rest\/relation\/taxonomy_term\/specialties\/parent": [
            null
        ]
    },
    "tid": [
        {
            "value": 88
        }
    ],
    "uuid": [
        {
            "value": "471f7b65-ad0b-4020-a739-a8ebed7cac54"
        }
    ],
    "langcode": [
        {
            "value": "en",
            "lang": "en"
        }
    ],
    "vid": [
        {
            "target_id": "specialties"
        }
    ],
    "status": [
        {
            "value": true,
            "lang": "en"
        }
    ],
    "name": [
        {
            "value": "Construction",
            "lang": "en"
        }
    ],
    "weight": [
        {
            "value": 0
        }
    ],
    "_embedded": {
        "http:\/\/drupal.org\/rest\/relation\/taxonomy_term\/specialties\/parent": [
            null
        ]
    },
    "changed": [
        {
            "value": "2019-01-31T18:54:02+00:00",
            "lang": "en",
            "format": "Y-m-d\\TH:i:sP"
        }
    ],
    "default_langcode": [
        {
            "value": true,
            "lang": "en"
        }
    ]
}