{
    "_links": {
        "self": {
            "href": "http:\/\/default\/taxonomy\/term\/1298?_format=hal_json"
        },
        "type": {
            "href": "http:\/\/drupal.org\/rest\/type\/taxonomy_term\/certifications"
        },
        "http:\/\/drupal.org\/rest\/relation\/taxonomy_term\/certifications\/parent": [
            null
        ]
    },
    "tid": [
        {
            "value": 1298
        }
    ],
    "uuid": [
        {
            "value": "71d88e9c-cdb1-4d8f-b90a-2b8be078dfbf"
        }
    ],
    "langcode": [
        {
            "value": "en",
            "lang": "en"
        }
    ],
    "vid": [
        {
            "target_id": "certifications"
        }
    ],
    "status": [
        {
            "value": true,
            "lang": "en"
        }
    ],
    "name": [
        {
            "value": "BMT: Building Moisture Thermography",
            "lang": "en"
        }
    ],
    "weight": [
        {
            "value": 0
        }
    ],
    "_embedded": {
        "http:\/\/drupal.org\/rest\/relation\/taxonomy_term\/certifications\/parent": [
            null
        ]
    },
    "changed": [
        {
            "value": "2019-04-12T20:54:19+00:00",
            "lang": "en",
            "format": "Y-m-d\\TH:i:sP"
        }
    ],
    "default_langcode": [
        {
            "value": true,
            "lang": "en"
        }
    ]
}