{
    "_links": {
        "self": {
            "href": "http:\/\/default\/taxonomy\/term\/72?_format=hal_json"
        },
        "type": {
            "href": "http:\/\/drupal.org\/rest\/type\/taxonomy_term\/soft_skills"
        },
        "http:\/\/drupal.org\/rest\/relation\/taxonomy_term\/soft_skills\/parent": [
            null
        ]
    },
    "tid": [
        {
            "value": 72
        }
    ],
    "uuid": [
        {
            "value": "b35403bd-a65f-40f0-8a7a-1a4fa1c7345b"
        }
    ],
    "langcode": [
        {
            "value": "en",
            "lang": "en"
        }
    ],
    "vid": [
        {
            "target_id": "soft_skills"
        }
    ],
    "status": [
        {
            "value": true,
            "lang": "en"
        }
    ],
    "name": [
        {
            "value": "Technology",
            "lang": "en"
        }
    ],
    "weight": [
        {
            "value": 0
        }
    ],
    "_embedded": {
        "http:\/\/drupal.org\/rest\/relation\/taxonomy_term\/soft_skills\/parent": [
            null
        ]
    },
    "changed": [
        {
            "value": "2019-01-31T18:45:41+00:00",
            "lang": "en",
            "format": "Y-m-d\\TH:i:sP"
        }
    ],
    "default_langcode": [
        {
            "value": true,
            "lang": "en"
        }
    ]
}